Tidyverse Principles
…
Add a verb to sort the observations of the public_work variable in descending order.

Code

counties_selected |> 
  arrange(desc(public_work))

# A tibble: 3,138 × 6
   state        county         population private_work public_work self_employed
   <chr>        <chr>               <dbl>        <dbl>       <dbl>         <dbl>
 1 Hawaii       Kalawao                85         25          64.1          10.9
 2 Alaska       Yukon-Koyukuk…       5644         33.3        61.7           5.1
 3 Wisconsin    Menominee            4451         36.8        59.1           3.7
 4 North Dakota Sioux                4380         32.9        56.8          10.2
 5 South Dakota Todd                 9942         34.4        55             9.8
 6 Alaska       Lake and Peni…       1474         42.2        51.6           6.1
 7 California   Lassen              32645         42.6        50.5           6.8
 8 South Dakota Buffalo              2038         48.4        49.5           1.8
 9 South Dakota Dewey                5579         34.9        49.2          14.7
10 Texas        Kenedy                565         51.9        48.1           0  
# ℹ 3,128 more rows
