A predictive modeling case study
…
# A tibble: 1 × 3
   mtry min_n .config         
  <int> <int> <chr>           
1     9     3 pre0_mod09_post0

To calculate the data needed to plot the ROC curve, we use collect_predictions(). This is only possible after tuning with control_grid(save_pred = TRUE). In the output, you can see the two columns that hold our class probabilities for predicting hotel stays including and not including children.

rf_res |>  
  collect_predictions()

# A tibble: 187,500 × 8
   .pred_children .pred_none id         children  .row  mtry min_n .config      
            <dbl>      <dbl> <chr>      <fct>    <int> <int> <int> <chr>        
 1         0.0695      0.930 validation none        13     1    24 pre0_mod01_p…
 2         0.0519      0.948 validation none        20     1    24 pre0_mod01_p…
 3         0.0669      0.933 validation children    22     1    24 pre0_mod01_p…
 4         0.0560      0.944 validation none        23     1    24 pre0_mod01_p…
 5         0.0682      0.932 validation none        31     1    24 pre0_mod01_p…
 6         0.0430      0.957 validation none        38     1    24 pre0_mod01_p…
 7         0.0360      0.964 validation none        39     1    24 pre0_mod01_p…
 8         0.0481      0.952 validation none        50     1    24 pre0_mod01_p…
 9         0.0605      0.940 validation none        54     1    24 pre0_mod01_p…
10         0.0754      0.925 validation children    57     1    24 pre0_mod01_p…
# ℹ 187,490 more rows
…
