Build a model
…
urchins <-
  # Data were assembled for a tutorial 
  # at https://www.flutterbys.com.au/stats/tut/tut7.5a.html
  read_csv("https://tidymodels.org/start/models/urchins.csv")  |>  
  # Change the names to be a little more verbose
  setNames(c("food_regime", "initial_volume", "width")) |> 
  # Factors are very helpful for modeling, so we convert one column
  mutate(food_regime = factor(food_regime, levels = c("Initial", "Low", "High")))

Let’s take a quick look at the data:

urchins

# A tibble: 72 × 3
   food_regime initial_volume width
   <fct>                <dbl> <dbl>
 1 Initial                3.5 0.01 
 2 Initial                5   0.02 
 3 Initial                8   0.061
 4 Initial               10   0.051
 5 Initial               13   0.041
 6 Initial               13   0.061
 7 Initial               15   0.041
 8 Initial               15   0.071
 9 Initial               16   0.092
10 Initial               17   0.051
# ℹ 62 more rows
…
