But what do the nuns think?
…
You have a couple of options for how to choose which possible values for the tuning parameters to try. One option is to set up a grid of possible parameter values.

Here, we are using default ranges for cost complexity and tree depth, and we are going to try 3 to 12 principal components. When we set levels = 5, we are saying we want five levels for each parameter, which means there will be 125 (5 * 5 * 5) total models to try.

You can use the function tune_grid() to fit all these models; you can tune either a workflow or a model specification with a set of resampled data, such as the validation set you created (i.e. a single resample).

Grid of tuning parameters

grid_regular(num_comp(c(3, 12)),
             cost_complexity(),
             tree_depth(),
             levels = 5)

# A tibble: 125 × 3
   num_comp cost_complexity tree_depth
      <int>           <dbl>      <int>
 1        3    0.0000000001          1
 2        5    0.0000000001          1
 3        7    0.0000000001          1
 4        9    0.0000000001          1
 5       12    0.0000000001          1
 6        3    0.0000000178          1
 7        5    0.0000000178          1
 8        7    0.0000000178          1
 9        9    0.0000000178          1
10       12    0.0000000178          1
# ℹ 115 more rows
…
As a first step, use the function collect_metrics() to extract the performance metrics from the tuning results and store the values in tree_metrics.

Arrange the results in tree_metrics in ascending order of rmse values.

Use show_best() on tree_res to verify the previous values.

Use autoplot() on tree_res.

tree_metrics <- tree_res |>
    collect_metrics() 
tree_metrics |> 
  filter(.metric != "rsq") |> 
  arrange(mean)

# A tibble: 125 × 9
   cost_complexity tree_depth num_comp .metric .estimator  mean     n std_err
             <dbl>      <int>    <int> <chr>   <chr>      <dbl> <int>   <dbl>
 1    0.000562              4        5 rmse    standard    14.0    12  0.0331
 2    0.0000000001          4        5 rmse    standard    14.0    12  0.0330
 3    0.0000000178          4        5 rmse    standard    14.0    12  0.0330
 4    0.00000316            4        5 rmse    standard    14.0    12  0.0330
 5    0.000562              4        3 rmse    standard    14.0    12  0.0349
 6    0.000562              4        7 rmse    standard    14.0    12  0.0336
 7    0.0000000001          4        3 rmse    standard    14.0    12  0.0347
 8    0.0000000178          4        3 rmse    standard    14.0    12  0.0347
 9    0.00000316            4        3 rmse    standard    14.0    12  0.0347
10    0.0000000001          4        7 rmse    standard    14.0    12  0.0335
# ℹ 115 more rows
# ℹ 1 more variable: .config <chr>
…
