Linear Models & tidymodels
…
── Training information 

Training data contained 404 data points and no incomplete rows.

── Operations 

• Box-Cox transformation on: crim, indus, nox, rm, age, dis, ... | Trained

• Centering and scaling for: crim, zn, indus, chas, nox, rm, ... | Trained

boston_trained_data <- bake(boston_rec_trained, new_data = NULL)
boston_trained_data

# A tibble: 404 × 14
      crim     zn  indus   chas    nox      rm     age    dis    rad    tax
     <dbl>  <dbl>  <dbl>  <dbl>  <dbl>   <dbl>   <dbl>  <dbl>  <dbl>  <dbl>
 1 -0.0175 -0.485 -0.364 -0.278 -0.422  0.187  -1.07    0.717 -0.239 -0.594
 2  0.807  -0.485  1.17  -0.278  1.98  -0.942   1.19   -1.50  -0.239  0.329
 3 -0.0847 -0.485 -0.577 -0.278 -0.300  1.86   -1.72    0.104  0.324 -0.395
 4  0.132  -0.485 -0.577 -0.278 -0.300  1.52    0.240   0.261  0.324 -0.395
 5  1.49   -0.485  1.02  -0.278  0.676 -0.0732  0.688  -0.970  1.47   1.39 
 6  0.664  -0.485  1.17   3.59   0.610  2.71    0.934  -0.762 -0.239  0.329
 7 -0.261  -0.485 -0.170 -0.278 -0.132 -0.203   0.663  -0.311 -0.239  0.209
 8 -0.557  -0.485 -0.446 -0.278 -0.986 -0.300  -1.08    1.05  -0.905 -1.26 
 9 -0.0317 -0.485 -0.577 -0.278 -0.268  2.56   -0.0121  0.251  0.324 -0.395
10  0.0213  0.438 -0.642 -0.278 -1.23   2.57   -1.90    1.79   0.169 -0.191
# ℹ 394 more rows
# ℹ 4 more variables: ptratio <dbl>, black <dbl>, lstat <dbl>, medv <dbl>
…
