A Review of R Modeling Fundamentals
…
The variable species is stored in R as a factor. Most models need to encode the species data in a numeric format. The model formula rate ~ temp + species, will automatically encode the species column by adding a new numeric column that has a 0 when the species is O. exclamationis and a 1 when the species is O. niveus.

mod_lm <- lm(rate ~ temp + species, data = crickets)
model.matrix(mod_lm) |> 
  bind_cols(SPECIES = crickets$species)

# A tibble: 31 × 4
   `(Intercept)`  temp `speciesO. niveus` SPECIES         
           <dbl> <dbl>              <dbl> <fct>           
 1             1  20.8                  0 O. exclamationis
 2             1  20.8                  0 O. exclamationis
 3             1  24                    0 O. exclamationis
 4             1  24                    0 O. exclamationis
 5             1  24                    0 O. exclamationis
 6             1  24                    0 O. exclamationis
 7             1  26.2                  0 O. exclamationis
 8             1  26.2                  0 O. exclamationis
 9             1  26.2                  0 O. exclamationis
10             1  26.2                  0 O. exclamationis
# ℹ 21 more rows

Tip

There are four levels to the variable heating. The model formula automatically adds three additional binary columns that are binary indicators for three of the heating types. The reference level of the factor (i.e., the first level) is omitted.

library(PASWR2) # For VIT2005
# heating has four levels
mod_example <- lm(totalprice ~ area + heating, data = VIT2005)
model.matrix(mod_example) |> 
  bind_cols(HEATING = VIT2005$heating)

# A tibble: 218 × 6
   `(Intercept)`  area heating3A heating3B heating4A HEATING
           <dbl> <dbl>     <dbl>     <dbl>     <dbl> <fct>  
 1             1  75.3         1         0         0 3A     
 2             1 101.          0         0         1 4A     
 3             1  88.9         1         0         0 3A     
 4             1  62.6         0         0         0 1A     
 5             1 146.          0         0         1 4A     
 6             1  77.2         1         0         0 3A     
 7             1  77.0         0         0         1 4A     
 8             1  62.9         1         0         0 3A     
 9             1  58.5         1         0         0 3A     
10             1  59.2         1         0         0 3A     
# ℹ 208 more rows
…
