Tree-Based Methods
…
Computational engine: rpart 

tree_recipe <- recipe(formula = salary ~ ., data = hitters_train) 
tree_wkfl <- workflow() |> 
  add_recipe(tree_recipe) |> 
  add_model(tree_spec) 

set.seed(8675)
tree_tune <-
  tune_grid(tree_wkfl, resamples = hitters_folds, grid = 15)
tree_tune

# Tuning results
# 10-fold cross-validation repeated 5 times 
# A tibble: 50 × 5
   splits           id      id2    .metrics          .notes          
   <list>           <chr>   <chr>  <list>            <list>          
 1 <split [177/20]> Repeat1 Fold01 <tibble [30 × 5]> <tibble [0 × 3]>
 2 <split [177/20]> Repeat1 Fold02 <tibble [30 × 5]> <tibble [0 × 3]>
 3 <split [177/20]> Repeat1 Fold03 <tibble [30 × 5]> <tibble [0 × 3]>
 4 <split [177/20]> Repeat1 Fold04 <tibble [30 × 5]> <tibble [0 × 3]>
 5 <split [177/20]> Repeat1 Fold05 <tibble [30 × 5]> <tibble [0 × 3]>
 6 <split [177/20]> Repeat1 Fold06 <tibble [30 × 5]> <tibble [0 × 3]>
 7 <split [177/20]> Repeat1 Fold07 <tibble [30 × 5]> <tibble [0 × 3]>
 8 <split [178/19]> Repeat1 Fold08 <tibble [30 × 5]> <tibble [0 × 3]>
 9 <split [178/19]> Repeat1 Fold09 <tibble [30 × 5]> <tibble [0 × 3]>
10 <split [178/19]> Repeat1 Fold10 <tibble [30 × 5]> <tibble [0 × 3]>
# ℹ 40 more rows
…
Main Arguments:
  cost_complexity = tune()
  min_n = tune()

Computational engine: rpart 

set.seed(8675)
bag_tune <-
  tune_grid(bag_wkfl, resamples = hitters_folds, grid = 15)
bag_tune

# Tuning results
# 10-fold cross-validation repeated 5 times 
# A tibble: 50 × 5
   splits           id      id2    .metrics          .notes          
   <list>           <chr>   <chr>  <list>            <list>          
 1 <split [177/20]> Repeat1 Fold01 <tibble [30 × 6]> <tibble [0 × 3]>
 2 <split [177/20]> Repeat1 Fold02 <tibble [30 × 6]> <tibble [0 × 3]>
 3 <split [177/20]> Repeat1 Fold03 <tibble [30 × 6]> <tibble [0 × 3]>
 4 <split [177/20]> Repeat1 Fold04 <tibble [30 × 6]> <tibble [0 × 3]>
 5 <split [177/20]> Repeat1 Fold05 <tibble [30 × 6]> <tibble [0 × 3]>
 6 <split [177/20]> Repeat1 Fold06 <tibble [30 × 6]> <tibble [0 × 3]>
 7 <split [177/20]> Repeat1 Fold07 <tibble [30 × 6]> <tibble [0 × 3]>
 8 <split [178/19]> Repeat1 Fold08 <tibble [30 × 6]> <tibble [0 × 3]>
 9 <split [178/19]> Repeat1 Fold09 <tibble [30 × 6]> <tibble [0 × 3]>
10 <split [178/19]> Repeat1 Fold10 <tibble [30 × 6]> <tibble [0 × 3]>
# ℹ 40 more rows
…
ranger_recipe <- recipe(formula = salary ~ ., data = hitters_train)

ranger_workflow <- 
  workflow()  |>  
  add_recipe(ranger_recipe)  |>  
  add_model(ranger_spec) 

set.seed(309)
ranger_tune <-
  tune_grid(ranger_workflow, resamples = hitters_folds, grid = 15)
ranger_tune

# Tuning results
# 10-fold cross-validation repeated 5 times 
# A tibble: 50 × 5
   splits           id      id2    .metrics          .notes          
   <list>           <chr>   <chr>  <list>            <list>          
 1 <split [177/20]> Repeat1 Fold01 <tibble [30 × 6]> <tibble [0 × 3]>
 2 <split [177/20]> Repeat1 Fold02 <tibble [30 × 6]> <tibble [0 × 3]>
 3 <split [177/20]> Repeat1 Fold03 <tibble [30 × 6]> <tibble [0 × 3]>
 4 <split [177/20]> Repeat1 Fold04 <tibble [30 × 6]> <tibble [0 × 3]>
 5 <split [177/20]> Repeat1 Fold05 <tibble [30 × 6]> <tibble [0 × 3]>
 6 <split [177/20]> Repeat1 Fold06 <tibble [30 × 6]> <tibble [0 × 3]>
 7 <split [177/20]> Repeat1 Fold07 <tibble [30 × 6]> <tibble [0 × 3]>
 8 <split [178/19]> Repeat1 Fold08 <tibble [30 × 6]> <tibble [0 × 3]>
 9 <split [178/19]> Repeat1 Fold09 <tibble [30 × 6]> <tibble [0 × 3]>
10 <split [178/19]> Repeat1 Fold10 <tibble [30 × 6]> <tibble [0 × 3]>
# ℹ 40 more rows
…
Computational engine: xgboost 

set.seed(753)
xgboost_tune <-
  tune_grid(xgboost_workflow, resamples = hitters_folds, grid = 15)
xgboost_tune

# Tuning results
# 10-fold cross-validation repeated 5 times 
# A tibble: 50 × 5
   splits           id      id2    .metrics           .notes          
   <list>           <chr>   <chr>  <list>             <list>          
 1 <split [177/20]> Repeat1 Fold01 <tibble [30 × 10]> <tibble [1 × 3]>
 2 <split [177/20]> Repeat1 Fold02 <tibble [30 × 10]> <tibble [1 × 3]>
 3 <split [177/20]> Repeat1 Fold03 <tibble [30 × 10]> <tibble [1 × 3]>
 4 <split [177/20]> Repeat1 Fold04 <tibble [30 × 10]> <tibble [1 × 3]>
 5 <split [177/20]> Repeat1 Fold05 <tibble [30 × 10]> <tibble [1 × 3]>
 6 <split [177/20]> Repeat1 Fold06 <tibble [30 × 10]> <tibble [1 × 3]>
 7 <split [177/20]> Repeat1 Fold07 <tibble [30 × 10]> <tibble [1 × 3]>
 8 <split [178/19]> Repeat1 Fold08 <tibble [30 × 10]> <tibble [1 × 3]>
 9 <split [178/19]> Repeat1 Fold09 <tibble [30 × 10]> <tibble [1 × 3]>
10 <split [178/19]> Repeat1 Fold10 <tibble [30 × 10]> <tibble [1 × 3]>
# ℹ 40 more rows
…
Run `show_notes(.Last.tune.result)` for more information.

Consider using the finetune package for tuning with the tune_race_anova() function.

set.seed(867)
library(finetune)
doParallel::registerDoParallel()
xgb_tune <- 
  tune_race_anova(xgboost_workflow, resamples = hitters_folds, grid = 15)
xgb_tune

# Tuning results
# 10-fold cross-validation repeated 5 times 
# A tibble: 50 × 6
   splits           id      id2    .order .metrics           .notes          
   <list>           <chr>   <chr>   <int> <list>             <list>          
 1 <split [177/20]> Repeat1 Fold04      3 <tibble [30 × 10]> <tibble [3 × 3]>
 2 <split [177/20]> Repeat1 Fold05      1 <tibble [30 × 10]> <tibble [2 × 3]>
 3 <split [178/19]> Repeat1 Fold08      2 <tibble [30 × 10]> <tibble [3 × 3]>
 4 <split [178/19]> Repeat1 Fold09      4 <tibble [18 × 10]> <tibble [0 × 3]>
 5 <split [177/20]> Repeat1 Fold06      5 <tibble [14 × 10]> <tibble [0 × 3]>
 6 <split [177/20]> Repeat1 Fold01      6 <tibble [10 × 10]> <tibble [0 × 3]>
 7 <split [177/20]> Repeat1 Fold02      7 <tibble [10 × 10]> <tibble [0 × 3]>
 8 <split [177/20]> Repeat1 Fold03      8 <tibble [10 × 10]> <tibble [0 × 3]>
 9 <split [178/19]> Repeat1 Fold10      9 <tibble [10 × 10]> <tibble [0 × 3]>
10 <split [177/20]> Repeat1 Fold07     10 <tibble [8 × 10]>  <tibble [0 × 3]>
# ℹ 40 more rows
…
